## Interface: 80000
## Title: |cff5FC412Combuctor Config|r
## Author: Tuller and Jaliborc (João Cardoso)
## Notes: An options menu for Combuctor
## Dependencies: Combuctor
## LoadOnDemand: 1
## Version: 8.0

main.lua
common\Wildpants_Config.xml